Flow report for trimble
Tue Jan 19 15:47:35 2016
Quartus II 32-bit Version 13.0.0 Build 156 04/24/2013 SJ Full Version


---------------------
; Table of Contents ;
---------------------
  1. Legal Notice
  2. Flow Summary
  3. Flow Settings
  4. Flow Non-Default Global Settings
  5. Flow Elapsed Time
  6. Flow OS Summary
  7. Flow Log
  8. Flow Messages
  9. Flow Suppressed Messages



----------------
; Legal Notice ;
----------------
Copyright (C) 1991-2013 Altera Corporation
Your use of Altera Corporation's design tools, logic functions 
and other software and tools, and its AMPP partner logic 
functions, and any output files from any of the foregoing 
(including device programming or simulation files), and any 
associated documentation or information are expressly subject 
to the terms and conditions of the Altera Program License 
Subscription Agreement, Altera MegaCore Function License 
Agreement, or other applicable license agreement, including, 
without limitation, that your use is for the sole purpose of 
programming logic devices manufactured by Altera and sold by 
Altera or its authorized distributors.  Please refer to the 
applicable agreement for further details.



+----------------------------------------------------------------------------------+
; Flow Summary                                                                     ;
+------------------------------------+---------------------------------------------+
; Flow Status                        ; Successful - Tue Jan 19 15:47:35 2016       ;
; Quartus II 32-bit Version          ; 13.0.0 Build 156 04/24/2013 SJ Full Version ;
; Revision Name                      ; trimble                                     ;
; Top-level Entity Name              ; trimble                                     ;
; Family                             ; Cyclone II                                  ;
; Device                             ; EP2C35F672C6                                ;
; Timing Models                      ; Final                                       ;
; Total logic elements               ; 5,260 / 33,216 ( 16 % )                     ;
;     Total combinational functions  ; 5,150 / 33,216 ( 16 % )                     ;
;     Dedicated logic registers      ; 546 / 33,216 ( 2 % )                        ;
; Total registers                    ; 546                                         ;
; Total pins                         ; 77 / 475 ( 16 % )                           ;
; Total virtual pins                 ; 0                                           ;
; Total memory bits                  ; 356 / 483,840 ( < 1 % )                     ;
; Embedded Multiplier 9-bit elements ; 0 / 70 ( 0 % )                              ;
; Total PLLs                         ; 0 / 4 ( 0 % )                               ;
+------------------------------------+---------------------------------------------+


+-----------------------------------------+
; Flow Settings                           ;
+-------------------+---------------------+
; Option            ; Setting             ;
+-------------------+---------------------+
; Start date & time ; 05/22/2015 16:35:30 ;
; Main task         ; Compilation         ;
; Revision Name     ; trimble             ;
+-------------------+---------------------+


+----------------------------------------------------------------------------------------------------------------------------------------------------------------------+
; Flow Non-Default Global Settings                                                                                                                                     ;
+-------------------------------------+-------------------------------------------------------------------------------+---------------+-------------+------------------+
; Assignment Name                     ; Value                                                                         ; Default Value ; Entity Name ; Section Id       ;
+-------------------------------------+-------------------------------------------------------------------------------+---------------+-------------+------------------+
; COMPILER_SIGNATURE_ID               ; 134164206277.143230172905488                                                  ; --            ; --          ; --               ;
; EDA_OUTPUT_DATA_FORMAT              ; Vhdl                                                                          ; --            ; --          ; eda_simulation   ;
; EDA_SIMULATION_TOOL                 ; ModelSim-Altera (VHDL)                                                        ; <None>        ; --          ; --               ;
; ENABLE_SIGNALTAP                    ; On                                                                            ; --            ; --          ; --               ;
; MAX_CORE_JUNCTION_TEMP              ; 85                                                                            ; --            ; --          ; --               ;
; MIN_CORE_JUNCTION_TEMP              ; 0                                                                             ; --            ; --          ; --               ;
; PARTITION_COLOR                     ; 16764057                                                                      ; --            ; --          ; Top              ;
; PARTITION_FITTER_PRESERVATION_LEVEL ; PLACEMENT_AND_ROUTING                                                         ; --            ; --          ; Top              ;
; PARTITION_NETLIST_TYPE              ; SOURCE                                                                        ; --            ; --          ; Top              ;
; PROJECT_OUTPUT_DIRECTORY            ; output_files                                                                  ; --            ; --          ; --               ;
; SLD_FILE                            ; D:/altera/projects/trimble/stp1_auto_stripped.stp                             ; --            ; --          ; --               ;
; SLD_NODE_CREATOR_ID                 ; 110                                                                           ; --            ; --          ; auto_signaltap_0 ;
; SLD_NODE_ENTITY_NAME                ; sld_signaltap                                                                 ; --            ; --          ; auto_signaltap_0 ;
; SLD_NODE_PARAMETER_ASSIGNMENT       ; SLD_NODE_INFO=805334528                                                       ; --            ; --          ; auto_signaltap_0 ;
; SLD_NODE_PARAMETER_ASSIGNMENT       ; SLD_POWER_UP_TRIGGER=0                                                        ; --            ; --          ; auto_signaltap_0 ;
; SLD_NODE_PARAMETER_ASSIGNMENT       ; SLD_SEGMENT_SIZE=128                                                          ; --            ; --          ; auto_signaltap_0 ;
; SLD_NODE_PARAMETER_ASSIGNMENT       ; SLD_ATTRIBUTE_MEM_MODE=OFF                                                    ; --            ; --          ; auto_signaltap_0 ;
; SLD_NODE_PARAMETER_ASSIGNMENT       ; SLD_TRIGGER_LEVEL=1                                                           ; --            ; --          ; auto_signaltap_0 ;
; SLD_NODE_PARAMETER_ASSIGNMENT       ; SLD_SAMPLE_DEPTH=128                                                          ; --            ; --          ; auto_signaltap_0 ;
; SLD_NODE_PARAMETER_ASSIGNMENT       ; SLD_TRIGGER_LEVEL_PIPELINE=1                                                  ; --            ; --          ; auto_signaltap_0 ;
; SLD_NODE_PARAMETER_ASSIGNMENT       ; SLD_STATE_FLOW_USE_GENERATED=1                                                ; --            ; --          ; auto_signaltap_0 ;
; SLD_NODE_PARAMETER_ASSIGNMENT       ; SLD_STATE_BITS=2                                                              ; --            ; --          ; auto_signaltap_0 ;
; SLD_NODE_PARAMETER_ASSIGNMENT       ; SLD_STATE_FLOW_MGR_ENTITY=sld_reserved_trimble_auto_signaltap_0_flow_mgr_c90c ; --            ; --          ; auto_signaltap_0 ;
; SLD_NODE_PARAMETER_ASSIGNMENT       ; SLD_BUFFER_FULL_STOP=0                                                        ; --            ; --          ; auto_signaltap_0 ;
; SLD_NODE_PARAMETER_ASSIGNMENT       ; SLD_CURRENT_RESOURCE_WIDTH=0                                                  ; --            ; --          ; auto_signaltap_0 ;
; SLD_NODE_PARAMETER_ASSIGNMENT       ; SLD_TRIGGER_IN_ENABLED=1                                                      ; --            ; --          ; auto_signaltap_0 ;
; SLD_NODE_PARAMETER_ASSIGNMENT       ; SLD_DATA_BITS=19                                                              ; --            ; --          ; auto_signaltap_0 ;
; SLD_NODE_PARAMETER_ASSIGNMENT       ; SLD_TRIGGER_BITS=19                                                           ; --            ; --          ; auto_signaltap_0 ;
; SLD_NODE_PARAMETER_ASSIGNMENT       ; SLD_STORAGE_QUALIFIER_INVERSION_MASK_LENGTH=0                                 ; --            ; --          ; auto_signaltap_0 ;
; SLD_NODE_PARAMETER_ASSIGNMENT       ; SLD_INVERSION_MASK=00000000000                                                ; --            ; --          ; auto_signaltap_0 ;
; SLD_NODE_PARAMETER_ASSIGNMENT       ; SLD_INVERSION_MASK_LENGTH=11                                                  ; --            ; --          ; auto_signaltap_0 ;
; SLD_NODE_PARAMETER_ASSIGNMENT       ; SLD_NODE_CRC_HIWORD=48909                                                     ; --            ; --          ; auto_signaltap_0 ;
; SLD_NODE_PARAMETER_ASSIGNMENT       ; SLD_ADVANCED_TRIGGER_ENTITY=sld_reserved_trimble_auto_signaltap_0_1_bb07,     ; --            ; --          ; auto_signaltap_0 ;
; SLD_NODE_PARAMETER_ASSIGNMENT       ; SLD_ENABLE_ADVANCED_TRIGGER=1                                                 ; --            ; --          ; auto_signaltap_0 ;
; SLD_NODE_PARAMETER_ASSIGNMENT       ; SLD_NODE_CRC_LOWORD=25016                                                     ; --            ; --          ; auto_signaltap_0 ;
; USE_SIGNALTAP_FILE                  ; stp1.stp                                                                      ; --            ; --          ; --               ;
+-------------------------------------+-------------------------------------------------------------------------------+---------------+-------------+------------------+


+-------------------------------------------------------------------------------------------------------------------------------+
; Flow Elapsed Time                                                                                                             ;
+---------------------------+--------------+-------------------------+---------------------+------------------------------------+
; Module Name               ; Elapsed Time ; Average Processors Used ; Peak Virtual Memory ; Total CPU Time (on all processors) ;
+---------------------------+--------------+-------------------------+---------------------+------------------------------------+
; Analysis & Synthesis      ; 00:01:00     ; 1.0                     ; 396 MB              ; 00:00:41                           ;
; Fitter                    ; 00:00:52     ; 1.2                     ; 508 MB              ; 00:00:43                           ;
; Assembler                 ; 00:00:09     ; 1.0                     ; 332 MB              ; 00:00:07                           ;
; TimeQuest Timing Analyzer ; 00:00:09     ; 1.0                     ; 320 MB              ; 00:00:06                           ;
; EDA Netlist Writer        ; 00:00:07     ; 1.0                     ; 311 MB              ; 00:00:07                           ;
; Analysis & Synthesis      ; 00:00:25     ; 1.4                     ; 362 MB              ; 00:00:25                           ;
; Partition Merge           ; 00:00:08     ; 1.0                     ; 330 MB              ; 00:00:04                           ;
; Fitter                    ; 00:00:45     ; 1.1                     ; 508 MB              ; 00:00:38                           ;
; Assembler                 ; 00:00:08     ; 1.0                     ; 328 MB              ; 00:00:07                           ;
; TimeQuest Timing Analyzer ; 00:00:06     ; 1.0                     ; 323 MB              ; 00:00:05                           ;
; EDA Netlist Writer        ; 00:00:08     ; 1.0                     ; 311 MB              ; 00:00:07                           ;
; Analysis & Synthesis      ; 00:00:49     ; 1.8                     ; 366 MB              ; 00:00:50                           ;
; Partition Merge           ; 00:00:07     ; 1.0                     ; 325 MB              ; 00:00:04                           ;
; Fitter                    ; 00:00:52     ; 1.3                     ; 500 MB              ; 00:00:45                           ;
; Assembler                 ; 00:00:08     ; 1.0                     ; 332 MB              ; 00:00:06                           ;
; TimeQuest Timing Analyzer ; 00:00:07     ; 1.0                     ; 320 MB              ; 00:00:05                           ;
; EDA Netlist Writer        ; 00:00:08     ; 1.0                     ; 311 MB              ; 00:00:07                           ;
; Analysis & Synthesis      ; 00:00:46     ; 1.7                     ; 362 MB              ; 00:00:46                           ;
; Partition Merge           ; 00:00:09     ; 1.0                     ; 325 MB              ; 00:00:04                           ;
; Fitter                    ; 00:01:00     ; 1.3                     ; 500 MB              ; 00:00:47                           ;
; Assembler                 ; 00:00:10     ; 1.0                     ; 332 MB              ; 00:00:07                           ;
; TimeQuest Timing Analyzer ; 00:00:06     ; 1.0                     ; 320 MB              ; 00:00:05                           ;
; EDA Netlist Writer        ; 00:00:08     ; 1.0                     ; 311 MB              ; 00:00:07                           ;
; Analysis & Synthesis      ; 00:00:15     ; 1.0                     ; 360 MB              ; 00:00:13                           ;
; Partition Merge           ; 00:00:05     ; 1.0                     ; 325 MB              ; 00:00:04                           ;
; Fitter                    ; 00:00:38     ; 1.3                     ; 508 MB              ; 00:00:37                           ;
; Assembler                 ; 00:00:07     ; 1.0                     ; 332 MB              ; 00:00:06                           ;
; TimeQuest Timing Analyzer ; 00:00:05     ; 1.0                     ; 320 MB              ; 00:00:05                           ;
; EDA Netlist Writer        ; 00:00:08     ; 1.0                     ; 311 MB              ; 00:00:07                           ;
; Analysis & Synthesis      ; 00:00:14     ; 1.0                     ; 358 MB              ; 00:00:13                           ;
; Partition Merge           ; 00:00:04     ; 1.0                     ; 330 MB              ; 00:00:04                           ;
; Fitter                    ; 00:00:33     ; 1.3                     ; 508 MB              ; 00:00:35                           ;
; Assembler                 ; 00:00:08     ; 1.0                     ; 332 MB              ; 00:00:07                           ;
; TimeQuest Timing Analyzer ; 00:00:07     ; 1.0                     ; 323 MB              ; 00:00:06                           ;
; EDA Netlist Writer        ; 00:00:09     ; 1.0                     ; 311 MB              ; 00:00:08                           ;
; Analysis & Synthesis      ; 00:01:03     ; 1.8                     ; 362 MB              ; 00:00:47                           ;
; Partition Merge           ; 00:00:10     ; 1.0                     ; 325 MB              ; 00:00:04                           ;
; Fitter                    ; 00:01:02     ; 1.3                     ; 509 MB              ; 00:00:48                           ;
; Assembler                 ; 00:00:08     ; 1.0                     ; 329 MB              ; 00:00:07                           ;
; TimeQuest Timing Analyzer ; 00:00:08     ; 1.0                     ; 319 MB              ; 00:00:05                           ;
; EDA Netlist Writer        ; 00:00:08     ; 1.0                     ; 311 MB              ; 00:00:08                           ;
; Analysis & Synthesis      ; 00:00:12     ; 1.0                     ; 306 MB              ; 00:00:07                           ;
; Partition Merge           ; 00:00:04     ; 1.0                     ; 324 MB              ; 00:00:04                           ;
; Fitter                    ; 00:00:26     ; 1.3                     ; 497 MB              ; 00:00:29                           ;
; Assembler                 ; 00:00:07     ; 1.0                     ; 328 MB              ; 00:00:07                           ;
; TimeQuest Timing Analyzer ; 00:00:13     ; 1.0                     ; 331 MB              ; 00:00:08                           ;
; EDA Netlist Writer        ; 00:00:09     ; 1.0                     ; 301 MB              ; 00:00:07                           ;
; Analysis & Synthesis      ; 00:00:38     ; 1.0                     ; 364 MB              ; 00:00:29                           ;
; Partition Merge           ; 00:00:04     ; 1.0                     ; 321 MB              ; 00:00:04                           ;
; Fitter                    ; 00:01:00     ; 1.5                     ; 505 MB              ; 00:01:17                           ;
; Assembler                 ; 00:00:08     ; 1.0                     ; 328 MB              ; 00:00:07                           ;
; TimeQuest Timing Analyzer ; 00:00:14     ; 1.0                     ; 328 MB              ; 00:00:09                           ;
; EDA Netlist Writer        ; 00:00:08     ; 1.0                     ; 301 MB              ; 00:00:07                           ;
; Analysis & Synthesis      ; 00:00:30     ; 1.0                     ; 363 MB              ; 00:00:27                           ;
; Partition Merge           ; 00:00:04     ; 1.0                     ; 321 MB              ; 00:00:03                           ;
; Fitter                    ; 00:00:58     ; 1.5                     ; 505 MB              ; 00:01:14                           ;
; Assembler                 ; 00:00:07     ; 1.0                     ; 332 MB              ; 00:00:06                           ;
; TimeQuest Timing Analyzer ; 00:00:09     ; 1.0                     ; 330 MB              ; 00:00:07                           ;
; EDA Netlist Writer        ; 00:00:09     ; 1.0                     ; 301 MB              ; 00:00:07                           ;
; Analysis & Synthesis      ; 00:00:28     ; 1.0                     ; 364 MB              ; 00:00:25                           ;
; Partition Merge           ; 00:00:04     ; 1.0                     ; 321 MB              ; 00:00:04                           ;
; Fitter                    ; 00:00:58     ; 1.4                     ; 496 MB              ; 00:01:12                           ;
; Assembler                 ; 00:00:09     ; 1.0                     ; 332 MB              ; 00:00:07                           ;
; TimeQuest Timing Analyzer ; 00:00:11     ; 1.0                     ; 323 MB              ; 00:00:08                           ;
; EDA Netlist Writer        ; 00:00:07     ; 1.0                     ; 301 MB              ; 00:00:06                           ;
; Analysis & Synthesis      ; 00:00:32     ; 1.0                     ; 365 MB              ; 00:00:26                           ;
; Partition Merge           ; 00:00:06     ; 1.0                     ; 321 MB              ; 00:00:03                           ;
; Fitter                    ; 00:01:04     ; 1.4                     ; 505 MB              ; 00:01:15                           ;
; Assembler                 ; 00:00:08     ; 1.0                     ; 332 MB              ; 00:00:06                           ;
; TimeQuest Timing Analyzer ; 00:00:09     ; 1.0                     ; 321 MB              ; 00:00:07                           ;
; EDA Netlist Writer        ; 00:00:07     ; 1.0                     ; 301 MB              ; 00:00:07                           ;
; Analysis & Synthesis      ; 00:00:31     ; 1.0                     ; 364 MB              ; 00:00:28                           ;
; Partition Merge           ; 00:00:04     ; 1.0                     ; 321 MB              ; 00:00:03                           ;
; Fitter                    ; 00:01:01     ; 1.4                     ; 497 MB              ; 00:01:15                           ;
; Assembler                 ; 00:00:08     ; 1.0                     ; 328 MB              ; 00:00:06                           ;
; TimeQuest Timing Analyzer ; 00:00:10     ; 1.0                     ; 332 MB              ; 00:00:08                           ;
; EDA Netlist Writer        ; 00:00:08     ; 1.0                     ; 301 MB              ; 00:00:07                           ;
; Analysis & Synthesis      ; 00:00:43     ; 1.0                     ; 364 MB              ; 00:00:28                           ;
; Partition Merge           ; 00:00:08     ; 1.0                     ; 321 MB              ; 00:00:03                           ;
; Fitter                    ; 00:01:11     ; 1.4                     ; 497 MB              ; 00:01:13                           ;
; Assembler                 ; 00:00:09     ; 1.0                     ; 328 MB              ; 00:00:06                           ;
; TimeQuest Timing Analyzer ; 00:00:10     ; 1.0                     ; 323 MB              ; 00:00:07                           ;
; EDA Netlist Writer        ; 00:00:08     ; 1.0                     ; 301 MB              ; 00:00:07                           ;
; Analysis & Synthesis      ; 00:00:30     ; 1.0                     ; 360 MB              ; 00:00:28                           ;
; Analysis & Synthesis      ; 00:00:07     ; 1.0                     ; 302 MB              ; 00:00:07                           ;
; Partition Merge           ; 00:00:07     ; 1.0                     ; 324 MB              ; 00:00:04                           ;
; Fitter                    ; 00:01:10     ; 1.5                     ; 497 MB              ; 00:01:19                           ;
; Assembler                 ; 00:00:07     ; 1.0                     ; 328 MB              ; 00:00:06                           ;
; TimeQuest Timing Analyzer ; 00:00:09     ; 1.0                     ; 323 MB              ; 00:00:07                           ;
; EDA Netlist Writer        ; 00:00:07     ; 1.0                     ; 301 MB              ; 00:00:07                           ;
; Analysis & Synthesis      ; 00:00:33     ; 1.0                     ; 364 MB              ; 00:00:28                           ;
; Partition Merge           ; 00:00:06     ; 1.0                     ; 321 MB              ; 00:00:03                           ;
; Fitter                    ; 00:01:00     ; 1.3                     ; 499 MB              ; 00:01:13                           ;
; Assembler                 ; 00:00:11     ; 1.0                     ; 328 MB              ; 00:00:10                           ;
; TimeQuest Timing Analyzer ; 00:00:14     ; 1.0                     ; 323 MB              ; 00:00:08                           ;
; EDA Netlist Writer        ; 00:00:08     ; 1.0                     ; 301 MB              ; 00:00:07                           ;
; Analysis & Synthesis      ; 00:00:30     ; 1.0                     ; 364 MB              ; 00:00:29                           ;
; Partition Merge           ; 00:00:04     ; 1.0                     ; 321 MB              ; 00:00:04                           ;
; Fitter                    ; 00:01:09     ; 1.5                     ; 500 MB              ; 00:01:23                           ;
; Assembler                 ; 00:00:07     ; 1.0                     ; 328 MB              ; 00:00:06                           ;
; TimeQuest Timing Analyzer ; 00:00:10     ; 1.0                     ; 328 MB              ; 00:00:07                           ;
; EDA Netlist Writer        ; 00:00:08     ; 1.0                     ; 301 MB              ; 00:00:07                           ;
; Analysis & Synthesis      ; 00:00:30     ; 1.0                     ; 364 MB              ; 00:00:28                           ;
; Analysis & Synthesis      ; 00:00:07     ; 1.0                     ; 302 MB              ; 00:00:07                           ;
; Partition Merge           ; 00:00:07     ; 1.0                     ; 324 MB              ; 00:00:03                           ;
; Fitter                    ; 00:01:08     ; 1.4                     ; 508 MB              ; 00:01:17                           ;
; Assembler                 ; 00:00:10     ; 1.0                     ; 328 MB              ; 00:00:07                           ;
; TimeQuest Timing Analyzer ; 00:00:11     ; 1.0                     ; 328 MB              ; 00:00:08                           ;
; EDA Netlist Writer        ; 00:00:08     ; 1.0                     ; 301 MB              ; 00:00:07                           ;
; Analysis & Synthesis      ; 00:00:08     ; 1.0                     ; 317 MB              ; 00:00:07                           ;
; Partition Merge           ; 00:00:04     ; 1.0                     ; 324 MB              ; 00:00:04                           ;
; Fitter                    ; 00:00:08     ; 1.0                     ; 378 MB              ; 00:00:08                           ;
; Fitter                    ; 00:00:11     ; 1.0                     ; 377 MB              ; 00:00:10                           ;
; Analysis & Synthesis      ; 00:00:07     ; 1.0                     ; 311 MB              ; 00:00:06                           ;
; Partition Merge           ; 00:00:03     ; 1.0                     ; 323 MB              ; 00:00:03                           ;
; Fitter                    ; 00:00:09     ; 1.0                     ; 377 MB              ; 00:00:08                           ;
; Analysis & Synthesis      ; 00:00:07     ; 1.0                     ; 311 MB              ; 00:00:06                           ;
; Analysis & Synthesis      ; 00:00:37     ; 1.0                     ; 360 MB              ; 00:00:29                           ;
; Partition Merge           ; 00:00:05     ; 1.0                     ; 317 MB              ; 00:00:04                           ;
; Fitter                    ; 00:01:03     ; 1.4                     ; 494 MB              ; 00:01:18                           ;
; Assembler                 ; 00:00:08     ; 1.0                     ; 328 MB              ; 00:00:06                           ;
; TimeQuest Timing Analyzer ; 00:00:13     ; 1.2                     ; 328 MB              ; 00:00:08                           ;
; EDA Netlist Writer        ; 00:00:09     ; 1.0                     ; 301 MB              ; 00:00:08                           ;
; Analysis & Synthesis      ; 00:00:43     ; 1.0                     ; 360 MB              ; 00:00:28                           ;
; Partition Merge           ; 00:00:09     ; 1.0                     ; 325 MB              ; 00:00:03                           ;
; Fitter                    ; 00:01:20     ; 1.3                     ; 499 MB              ; 00:01:26                           ;
; Assembler                 ; 00:00:09     ; 1.0                     ; 328 MB              ; 00:00:06                           ;
; TimeQuest Timing Analyzer ; 00:00:09     ; 1.0                     ; 328 MB              ; 00:00:07                           ;
; EDA Netlist Writer        ; 00:00:08     ; 1.0                     ; 306 MB              ; 00:00:07                           ;
; Analysis & Synthesis      ; 00:00:55     ; 1.0                     ; 372 MB              ; 00:00:32                           ;
; Analysis & Synthesis      ; 00:00:08     ; 1.0                     ; 302 MB              ; 00:00:07                           ;
; Partition Merge           ; 00:00:10     ; 1.0                     ; 324 MB              ; 00:00:04                           ;
; Fitter                    ; 00:01:36     ; 1.4                     ; 510 MB              ; 00:01:36                           ;
; Assembler                 ; 00:00:11     ; 1.0                     ; 332 MB              ; 00:00:07                           ;
; TimeQuest Timing Analyzer ; 00:00:11     ; 1.0                     ; 336 MB              ; 00:00:08                           ;
; EDA Netlist Writer        ; 00:00:08     ; 1.0                     ; 311 MB              ; 00:00:08                           ;
; Analysis & Synthesis      ; 00:00:08     ; 1.0                     ; 311 MB              ; 00:00:07                           ;
; Partition Merge           ; 00:00:07     ; 1.0                     ; 329 MB              ; 00:00:04                           ;
; Fitter                    ; 00:00:10     ; 1.0                     ; 378 MB              ; 00:00:09                           ;
; Analysis & Synthesis      ; 00:00:07     ; 1.0                     ; 307 MB              ; 00:00:06                           ;
; Partition Merge           ; 00:00:04     ; 1.0                     ; 323 MB              ; 00:00:03                           ;
; Fitter                    ; 00:00:14     ; 1.0                     ; 377 MB              ; 00:00:09                           ;
; Analysis & Synthesis      ; 00:00:07     ; 1.0                     ; 307 MB              ; 00:00:06                           ;
; Partition Merge           ; 00:00:04     ; 1.0                     ; 323 MB              ; 00:00:04                           ;
; Fitter                    ; 00:00:28     ; 1.2                     ; 500 MB              ; 00:00:30                           ;
; Assembler                 ; 00:00:07     ; 1.0                     ; 332 MB              ; 00:00:06                           ;
; TimeQuest Timing Analyzer ; 00:00:10     ; 1.0                     ; 330 MB              ; 00:00:08                           ;
; EDA Netlist Writer        ; 00:00:09     ; 1.0                     ; 311 MB              ; 00:00:08                           ;
; Analysis & Synthesis      ; 00:00:37     ; 1.0                     ; 378 MB              ; 00:00:31                           ;
; Partition Merge           ; 00:00:04     ; 1.0                     ; 325 MB              ; 00:00:04                           ;
; Fitter                    ; 00:01:24     ; 1.4                     ; 503 MB              ; 00:01:40                           ;
; Assembler                 ; 00:00:08     ; 1.0                     ; 332 MB              ; 00:00:06                           ;
; TimeQuest Timing Analyzer ; 00:00:10     ; 1.0                     ; 336 MB              ; 00:00:08                           ;
; EDA Netlist Writer        ; 00:00:08     ; 1.0                     ; 311 MB              ; 00:00:08                           ;
; Analysis & Synthesis      ; 00:00:37     ; 1.0                     ; 372 MB              ; 00:00:33                           ;
; Partition Merge           ; 00:00:06     ; 1.0                     ; 325 MB              ; 00:00:04                           ;
; Fitter                    ; 00:01:18     ; 1.4                     ; 503 MB              ; 00:01:37                           ;
; Assembler                 ; 00:00:09     ; 1.0                     ; 332 MB              ; 00:00:07                           ;
; TimeQuest Timing Analyzer ; 00:00:10     ; 1.2                     ; 336 MB              ; 00:00:08                           ;
; EDA Netlist Writer        ; 00:00:08     ; 1.0                     ; 311 MB              ; 00:00:08                           ;
; Analysis & Synthesis      ; 00:00:22     ; 1.0                     ; 317 MB              ; 00:00:09                           ;
; Analysis & Synthesis      ; 00:00:13     ; 1.0                     ; 302 MB              ; 00:00:08                           ;
; Analysis & Synthesis      ; 00:00:12     ; 1.0                     ; 302 MB              ; 00:00:08                           ;
; Analysis & Synthesis      ; 00:00:15     ; 1.0                     ; 302 MB              ; 00:00:10                           ;
; Partition Merge           ; 00:00:14     ; 1.0                     ; 328 MB              ; 00:00:05                           ;
; Fitter                    ; 00:00:58     ; 1.2                     ; 498 MB              ; 00:00:38                           ;
; Assembler                 ; 00:00:14     ; 1.0                     ; 332 MB              ; 00:00:07                           ;
; TimeQuest Timing Analyzer ; 00:00:19     ; 1.0                     ; 334 MB              ; 00:00:11                           ;
; EDA Netlist Writer        ; 00:00:16     ; 1.0                     ; 311 MB              ; 00:00:10                           ;
; Analysis & Synthesis      ; 00:00:08     ; 1.0                     ; 301 MB              ; 00:00:04                           ;
; Analysis & Synthesis      ; 00:00:05     ; 1.0                     ; 302 MB              ; 00:00:03                           ;
; Analysis & Synthesis      ; 00:00:53     ; 1.0                     ; 369 MB              ; 00:00:35                           ;
; Analysis & Synthesis      ; 00:00:46     ; 1.0                     ; 369 MB              ; 00:00:37                           ;
; Analysis & Synthesis      ; 00:00:40     ; 1.0                     ; 365 MB              ; 00:00:29                           ;
; Partition Merge           ; 00:00:06     ; 1.0                     ; 323 MB              ; 00:00:04                           ;
; Fitter                    ; 00:01:18     ; 1.4                     ; 506 MB              ; 00:01:35                           ;
; Assembler                 ; 00:00:13     ; 1.0                     ; 332 MB              ; 00:00:07                           ;
; TimeQuest Timing Analyzer ; 00:00:11     ; 1.0                     ; 334 MB              ; 00:00:08                           ;
; EDA Netlist Writer        ; 00:00:09     ; 1.0                     ; 311 MB              ; 00:00:07                           ;
; Analysis & Synthesis      ; 00:00:34     ; 1.0                     ; 369 MB              ; 00:00:31                           ;
; Partition Merge           ; 00:00:04     ; 1.0                     ; 319 MB              ; 00:00:03                           ;
; Fitter                    ; 00:01:12     ; 1.4                     ; 506 MB              ; 00:01:32                           ;
; Assembler                 ; 00:00:07     ; 1.0                     ; 332 MB              ; 00:00:06                           ;
; TimeQuest Timing Analyzer ; 00:00:12     ; 1.0                     ; 336 MB              ; 00:00:09                           ;
; EDA Netlist Writer        ; 00:00:08     ; 1.0                     ; 311 MB              ; 00:00:08                           ;
; Total                     ; 01:02:23     ; --                      ; --                  ; 00:57:05                           ;
+---------------------------+--------------+-------------------------+---------------------+------------------------------------+


+-----------------------------------------------------------------------------------------+
; Flow OS Summary                                                                         ;
+---------------------------+------------------+------------+------------+----------------+
; Module Name               ; Machine Hostname ; OS Name    ; OS Version ; Processor type ;
+---------------------------+------------------+------------+------------+----------------+
; Analysis & Synthesis      ; kemal-nb         ; Windows XP ; 5.1        ; i686           ;
; Fitter                    ; kemal-nb         ; Windows XP ; 5.1        ; i686           ;
; Assembler                 ; kemal-nb         ; Windows XP ; 5.1        ; i686           ;
; TimeQuest Timing Analyzer ; kemal-nb         ; Windows XP ; 5.1        ; i686           ;
; EDA Netlist Writer        ; kemal-nb         ; Windows XP ; 5.1        ; i686           ;
; Analysis & Synthesis      ; kemal-nb         ; Windows XP ; 5.1        ; i686           ;
; Partition Merge           ; kemal-nb         ; Windows XP ; 5.1        ; i686           ;
; Fitter                    ; kemal-nb         ; Windows XP ; 5.1        ; i686           ;
; Assembler                 ; kemal-nb         ; Windows XP ; 5.1        ; i686           ;
; TimeQuest Timing Analyzer ; kemal-nb         ; Windows XP ; 5.1        ; i686           ;
; EDA Netlist Writer        ; kemal-nb         ; Windows XP ; 5.1        ; i686           ;
; Analysis & Synthesis      ; kemal-nb         ; Windows XP ; 5.1        ; i686           ;
; Partition Merge           ; kemal-nb         ; Windows XP ; 5.1        ; i686           ;
; Fitter                    ; kemal-nb         ; Windows XP ; 5.1        ; i686           ;
; Assembler                 ; kemal-nb         ; Windows XP ; 5.1        ; i686           ;
; TimeQuest Timing Analyzer ; kemal-nb         ; Windows XP ; 5.1        ; i686           ;
; EDA Netlist Writer        ; kemal-nb         ; Windows XP ; 5.1        ; i686           ;
; Analysis & Synthesis      ; kemal-nb         ; Windows XP ; 5.1        ; i686           ;
; Partition Merge           ; kemal-nb         ; Windows XP ; 5.1        ; i686           ;
; Fitter                    ; kemal-nb         ; Windows XP ; 5.1        ; i686           ;
; Assembler                 ; kemal-nb         ; Windows XP ; 5.1        ; i686           ;
; TimeQuest Timing Analyzer ; kemal-nb         ; Windows XP ; 5.1        ; i686           ;
; EDA Netlist Writer        ; kemal-nb         ; Windows XP ; 5.1        ; i686           ;
; Analysis & Synthesis      ; kemal-nb         ; Windows XP ; 5.1        ; i686           ;
; Partition Merge           ; kemal-nb         ; Windows XP ; 5.1        ; i686           ;
; Fitter                    ; kemal-nb         ; Windows XP ; 5.1        ; i686           ;
; Assembler                 ; kemal-nb         ; Windows XP ; 5.1        ; i686           ;
; TimeQuest Timing Analyzer ; kemal-nb         ; Windows XP ; 5.1        ; i686           ;
; EDA Netlist Writer        ; kemal-nb         ; Windows XP ; 5.1        ; i686           ;
; Analysis & Synthesis      ; kemal-nb         ; Windows XP ; 5.1        ; i686           ;
; Partition Merge           ; kemal-nb         ; Windows XP ; 5.1        ; i686           ;
; Fitter                    ; kemal-nb         ; Windows XP ; 5.1        ; i686           ;
; Assembler                 ; kemal-nb         ; Windows XP ; 5.1        ; i686           ;
; TimeQuest Timing Analyzer ; kemal-nb         ; Windows XP ; 5.1        ; i686           ;
; EDA Netlist Writer        ; kemal-nb         ; Windows XP ; 5.1        ; i686           ;
; Analysis & Synthesis      ; kemal-nb         ; Windows XP ; 5.1        ; i686           ;
; Partition Merge           ; kemal-nb         ; Windows XP ; 5.1        ; i686           ;
; Fitter                    ; kemal-nb         ; Windows XP ; 5.1        ; i686           ;
; Assembler                 ; kemal-nb         ; Windows XP ; 5.1        ; i686           ;
; TimeQuest Timing Analyzer ; kemal-nb         ; Windows XP ; 5.1        ; i686           ;
; EDA Netlist Writer        ; kemal-nb         ; Windows XP ; 5.1        ; i686           ;
; Analysis & Synthesis      ; kemal-nb         ; Windows XP ; 5.1        ; i686           ;
; Partition Merge           ; kemal-nb         ; Windows XP ; 5.1        ; i686           ;
; Fitter                    ; kemal-nb         ; Windows XP ; 5.1        ; i686           ;
; Assembler                 ; kemal-nb         ; Windows XP ; 5.1        ; i686           ;
; TimeQuest Timing Analyzer ; kemal-nb         ; Windows XP ; 5.1        ; i686           ;
; EDA Netlist Writer        ; kemal-nb         ; Windows XP ; 5.1        ; i686           ;
; Analysis & Synthesis      ; kemal-nb         ; Windows XP ; 5.1        ; i686           ;
; Partition Merge           ; kemal-nb         ; Windows XP ; 5.1        ; i686           ;
; Fitter                    ; kemal-nb         ; Windows XP ; 5.1        ; i686           ;
; Assembler                 ; kemal-nb         ; Windows XP ; 5.1        ; i686           ;
; TimeQuest Timing Analyzer ; kemal-nb         ; Windows XP ; 5.1        ; i686           ;
; EDA Netlist Writer        ; kemal-nb         ; Windows XP ; 5.1        ; i686           ;
; Analysis & Synthesis      ; kemal-nb         ; Windows XP ; 5.1        ; i686           ;
; Partition Merge           ; kemal-nb         ; Windows XP ; 5.1        ; i686           ;
; Fitter                    ; kemal-nb         ; Windows XP ; 5.1        ; i686           ;
; Assembler                 ; kemal-nb         ; Windows XP ; 5.1        ; i686           ;
; TimeQuest Timing Analyzer ; kemal-nb         ; Windows XP ; 5.1        ; i686           ;
; EDA Netlist Writer        ; kemal-nb         ; Windows XP ; 5.1        ; i686           ;
; Analysis & Synthesis      ; kemal-nb         ; Windows XP ; 5.1        ; i686           ;
; Partition Merge           ; kemal-nb         ; Windows XP ; 5.1        ; i686           ;
; Fitter                    ; kemal-nb         ; Windows XP ; 5.1        ; i686           ;
; Assembler                 ; kemal-nb         ; Windows XP ; 5.1        ; i686           ;
; TimeQuest Timing Analyzer ; kemal-nb         ; Windows XP ; 5.1        ; i686           ;
; EDA Netlist Writer        ; kemal-nb         ; Windows XP ; 5.1        ; i686           ;
; Analysis & Synthesis      ; kemal-nb         ; Windows XP ; 5.1        ; i686           ;
; Partition Merge           ; kemal-nb         ; Windows XP ; 5.1        ; i686           ;
; Fitter                    ; kemal-nb         ; Windows XP ; 5.1        ; i686           ;
; Assembler                 ; kemal-nb         ; Windows XP ; 5.1        ; i686           ;
; TimeQuest Timing Analyzer ; kemal-nb         ; Windows XP ; 5.1        ; i686           ;
; EDA Netlist Writer        ; kemal-nb         ; Windows XP ; 5.1        ; i686           ;
; Analysis & Synthesis      ; kemal-nb         ; Windows XP ; 5.1        ; i686           ;
; Partition Merge           ; kemal-nb         ; Windows XP ; 5.1        ; i686           ;
; Fitter                    ; kemal-nb         ; Windows XP ; 5.1        ; i686           ;
; Assembler                 ; kemal-nb         ; Windows XP ; 5.1        ; i686           ;
; TimeQuest Timing Analyzer ; kemal-nb         ; Windows XP ; 5.1        ; i686           ;
; EDA Netlist Writer        ; kemal-nb         ; Windows XP ; 5.1        ; i686           ;
; Analysis & Synthesis      ; kemal-nb         ; Windows XP ; 5.1        ; i686           ;
; Partition Merge           ; kemal-nb         ; Windows XP ; 5.1        ; i686           ;
; Fitter                    ; kemal-nb         ; Windows XP ; 5.1        ; i686           ;
; Assembler                 ; kemal-nb         ; Windows XP ; 5.1        ; i686           ;
; TimeQuest Timing Analyzer ; kemal-nb         ; Windows XP ; 5.1        ; i686           ;
; EDA Netlist Writer        ; kemal-nb         ; Windows XP ; 5.1        ; i686           ;
; Analysis & Synthesis      ; kemal-nb         ; Windows XP ; 5.1        ; i686           ;
; Analysis & Synthesis      ; kemal-nb         ; Windows XP ; 5.1        ; i686           ;
; Partition Merge           ; kemal-nb         ; Windows XP ; 5.1        ; i686           ;
; Fitter                    ; kemal-nb         ; Windows XP ; 5.1        ; i686           ;
; Assembler                 ; kemal-nb         ; Windows XP ; 5.1        ; i686           ;
; TimeQuest Timing Analyzer ; kemal-nb         ; Windows XP ; 5.1        ; i686           ;
; EDA Netlist Writer        ; kemal-nb         ; Windows XP ; 5.1        ; i686           ;
; Analysis & Synthesis      ; kemal-nb         ; Windows XP ; 5.1        ; i686           ;
; Partition Merge           ; kemal-nb         ; Windows XP ; 5.1        ; i686           ;
; Fitter                    ; kemal-nb         ; Windows XP ; 5.1        ; i686           ;
; Assembler                 ; kemal-nb         ; Windows XP ; 5.1        ; i686           ;
; TimeQuest Timing Analyzer ; kemal-nb         ; Windows XP ; 5.1        ; i686           ;
; EDA Netlist Writer        ; kemal-nb         ; Windows XP ; 5.1        ; i686           ;
; Analysis & Synthesis      ; kemal-nb         ; Windows XP ; 5.1        ; i686           ;
; Partition Merge           ; kemal-nb         ; Windows XP ; 5.1        ; i686           ;
; Fitter                    ; kemal-nb         ; Windows XP ; 5.1        ; i686           ;
; Assembler                 ; kemal-nb         ; Windows XP ; 5.1        ; i686           ;
; TimeQuest Timing Analyzer ; kemal-nb         ; Windows XP ; 5.1        ; i686           ;
; EDA Netlist Writer        ; kemal-nb         ; Windows XP ; 5.1        ; i686           ;
; Analysis & Synthesis      ; kemal-nb         ; Windows XP ; 5.1        ; i686           ;
; Analysis & Synthesis      ; kemal-nb         ; Windows XP ; 5.1        ; i686           ;
; Partition Merge           ; kemal-nb         ; Windows XP ; 5.1        ; i686           ;
; Fitter                    ; kemal-nb         ; Windows XP ; 5.1        ; i686           ;
; Assembler                 ; kemal-nb         ; Windows XP ; 5.1        ; i686           ;
; TimeQuest Timing Analyzer ; kemal-nb         ; Windows XP ; 5.1        ; i686           ;
; EDA Netlist Writer        ; kemal-nb         ; Windows XP ; 5.1        ; i686           ;
; Analysis & Synthesis      ; kemal-nb         ; Windows XP ; 5.1        ; i686           ;
; Partition Merge           ; kemal-nb         ; Windows XP ; 5.1        ; i686           ;
; Fitter                    ; kemal-nb         ; Windows XP ; 5.1        ; i686           ;
; Fitter                    ; kemal-nb         ; Windows XP ; 5.1        ; i686           ;
; Analysis & Synthesis      ; kemal-nb         ; Windows XP ; 5.1        ; i686           ;
; Partition Merge           ; kemal-nb         ; Windows XP ; 5.1        ; i686           ;
; Fitter                    ; kemal-nb         ; Windows XP ; 5.1        ; i686           ;
; Analysis & Synthesis      ; kemal-nb         ; Windows XP ; 5.1        ; i686           ;
; Analysis & Synthesis      ; kemal-nb         ; Windows XP ; 5.1        ; i686           ;
; Partition Merge           ; kemal-nb         ; Windows XP ; 5.1        ; i686           ;
; Fitter                    ; kemal-nb         ; Windows XP ; 5.1        ; i686           ;
; Assembler                 ; kemal-nb         ; Windows XP ; 5.1        ; i686           ;
; TimeQuest Timing Analyzer ; kemal-nb         ; Windows XP ; 5.1        ; i686           ;
; EDA Netlist Writer        ; kemal-nb         ; Windows XP ; 5.1        ; i686           ;
; Analysis & Synthesis      ; kemal-nb         ; Windows XP ; 5.1        ; i686           ;
; Partition Merge           ; kemal-nb         ; Windows XP ; 5.1        ; i686           ;
; Fitter                    ; kemal-nb         ; Windows XP ; 5.1        ; i686           ;
; Assembler                 ; kemal-nb         ; Windows XP ; 5.1        ; i686           ;
; TimeQuest Timing Analyzer ; kemal-nb         ; Windows XP ; 5.1        ; i686           ;
; EDA Netlist Writer        ; kemal-nb         ; Windows XP ; 5.1        ; i686           ;
; Analysis & Synthesis      ; kemal-nb         ; Windows XP ; 5.1        ; i686           ;
; Analysis & Synthesis      ; kemal-nb         ; Windows XP ; 5.1        ; i686           ;
; Partition Merge           ; kemal-nb         ; Windows XP ; 5.1        ; i686           ;
; Fitter                    ; kemal-nb         ; Windows XP ; 5.1        ; i686           ;
; Assembler                 ; kemal-nb         ; Windows XP ; 5.1        ; i686           ;
; TimeQuest Timing Analyzer ; kemal-nb         ; Windows XP ; 5.1        ; i686           ;
; EDA Netlist Writer        ; kemal-nb         ; Windows XP ; 5.1        ; i686           ;
; Analysis & Synthesis      ; kemal-nb         ; Windows XP ; 5.1        ; i686           ;
; Partition Merge           ; kemal-nb         ; Windows XP ; 5.1        ; i686           ;
; Fitter                    ; kemal-nb         ; Windows XP ; 5.1        ; i686           ;
; Analysis & Synthesis      ; kemal-nb         ; Windows XP ; 5.1        ; i686           ;
; Partition Merge           ; kemal-nb         ; Windows XP ; 5.1        ; i686           ;
; Fitter                    ; kemal-nb         ; Windows XP ; 5.1        ; i686           ;
; Analysis & Synthesis      ; kemal-nb         ; Windows XP ; 5.1        ; i686           ;
; Partition Merge           ; kemal-nb         ; Windows XP ; 5.1        ; i686           ;
; Fitter                    ; kemal-nb         ; Windows XP ; 5.1        ; i686           ;
; Assembler                 ; kemal-nb         ; Windows XP ; 5.1        ; i686           ;
; TimeQuest Timing Analyzer ; kemal-nb         ; Windows XP ; 5.1        ; i686           ;
; EDA Netlist Writer        ; kemal-nb         ; Windows XP ; 5.1        ; i686           ;
; Analysis & Synthesis      ; kemal-nb         ; Windows XP ; 5.1        ; i686           ;
; Partition Merge           ; kemal-nb         ; Windows XP ; 5.1        ; i686           ;
; Fitter                    ; kemal-nb         ; Windows XP ; 5.1        ; i686           ;
; Assembler                 ; kemal-nb         ; Windows XP ; 5.1        ; i686           ;
; TimeQuest Timing Analyzer ; kemal-nb         ; Windows XP ; 5.1        ; i686           ;
; EDA Netlist Writer        ; kemal-nb         ; Windows XP ; 5.1        ; i686           ;
; Analysis & Synthesis      ; kemal-nb         ; Windows XP ; 5.1        ; i686           ;
; Partition Merge           ; kemal-nb         ; Windows XP ; 5.1        ; i686           ;
; Fitter                    ; kemal-nb         ; Windows XP ; 5.1        ; i686           ;
; Assembler                 ; kemal-nb         ; Windows XP ; 5.1        ; i686           ;
; TimeQuest Timing Analyzer ; kemal-nb         ; Windows XP ; 5.1        ; i686           ;
; EDA Netlist Writer        ; kemal-nb         ; Windows XP ; 5.1        ; i686           ;
; Analysis & Synthesis      ; kemal-nb         ; Windows XP ; 5.1        ; i686           ;
; Analysis & Synthesis      ; kemal-nb         ; Windows XP ; 5.1        ; i686           ;
; Analysis & Synthesis      ; kemal-nb         ; Windows XP ; 5.1        ; i686           ;
; Analysis & Synthesis      ; kemal-nb         ; Windows XP ; 5.1        ; i686           ;
; Partition Merge           ; kemal-nb         ; Windows XP ; 5.1        ; i686           ;
; Fitter                    ; kemal-nb         ; Windows XP ; 5.1        ; i686           ;
; Assembler                 ; kemal-nb         ; Windows XP ; 5.1        ; i686           ;
; TimeQuest Timing Analyzer ; kemal-nb         ; Windows XP ; 5.1        ; i686           ;
; EDA Netlist Writer        ; kemal-nb         ; Windows XP ; 5.1        ; i686           ;
; Analysis & Synthesis      ; kemal-nb         ; Windows XP ; 5.1        ; i686           ;
; Analysis & Synthesis      ; kemal-nb         ; Windows XP ; 5.1        ; i686           ;
; Analysis & Synthesis      ; kemal-nb         ; Windows XP ; 5.1        ; i686           ;
; Analysis & Synthesis      ; kemal-nb         ; Windows XP ; 5.1        ; i686           ;
; Analysis & Synthesis      ; kemal-nb         ; Windows XP ; 5.1        ; i686           ;
; Partition Merge           ; kemal-nb         ; Windows XP ; 5.1        ; i686           ;
; Fitter                    ; kemal-nb         ; Windows XP ; 5.1        ; i686           ;
; Assembler                 ; kemal-nb         ; Windows XP ; 5.1        ; i686           ;
; TimeQuest Timing Analyzer ; kemal-nb         ; Windows XP ; 5.1        ; i686           ;
; EDA Netlist Writer        ; kemal-nb         ; Windows XP ; 5.1        ; i686           ;
; Analysis & Synthesis      ; kemal-nb         ; Windows XP ; 5.1        ; i686           ;
; Partition Merge           ; kemal-nb         ; Windows XP ; 5.1        ; i686           ;
; Fitter                    ; kemal-nb         ; Windows XP ; 5.1        ; i686           ;
; Assembler                 ; kemal-nb         ; Windows XP ; 5.1        ; i686           ;
; TimeQuest Timing Analyzer ; kemal-nb         ; Windows XP ; 5.1        ; i686           ;
; EDA Netlist Writer        ; kemal-nb         ; Windows XP ; 5.1        ; i686           ;
+---------------------------+------------------+------------+------------+----------------+


------------
; Flow Log ;
------------
quartus_map --read_settings_files=on --write_settings_files=off trimble -c trimble
quartus_fit --read_settings_files=off --write_settings_files=off trimble -c trimble
quartus_asm --read_settings_files=off --write_settings_files=off trimble -c trimble
quartus_sta trimble -c trimble
quartus_eda --read_settings_files=off --write_settings_files=off trimble -c trimble
quartus_map --read_settings_files=on --write_settings_files=off trimble -c trimble
quartus_cdb --read_settings_files=off --write_settings_files=off trimble -c trimble --merge=on
quartus_fit --read_settings_files=off --write_settings_files=off trimble -c trimble
quartus_asm --read_settings_files=off --write_settings_files=off trimble -c trimble
quartus_sta trimble -c trimble
quartus_eda --read_settings_files=off --write_settings_files=off trimble -c trimble
quartus_map --read_settings_files=on --write_settings_files=off trimble -c trimble
quartus_cdb --read_settings_files=off --write_settings_files=off trimble -c trimble --merge=on
quartus_fit --read_settings_files=off --write_settings_files=off trimble -c trimble
quartus_asm --read_settings_files=off --write_settings_files=off trimble -c trimble
quartus_sta trimble -c trimble
quartus_eda --read_settings_files=off --write_settings_files=off trimble -c trimble
quartus_map --read_settings_files=on --write_settings_files=off trimble -c trimble
quartus_cdb --read_settings_files=off --write_settings_files=off trimble -c trimble --merge=on
quartus_fit --read_settings_files=off --write_settings_files=off trimble -c trimble
quartus_asm --read_settings_files=off --write_settings_files=off trimble -c trimble
quartus_sta trimble -c trimble
quartus_eda --read_settings_files=off --write_settings_files=off trimble -c trimble
quartus_map --read_settings_files=on --write_settings_files=off trimble -c trimble
quartus_cdb --read_settings_files=off --write_settings_files=off trimble -c trimble --merge=on
quartus_fit --read_settings_files=off --write_settings_files=off trimble -c trimble
quartus_asm --read_settings_files=off --write_settings_files=off trimble -c trimble
quartus_sta trimble -c trimble
quartus_eda --read_settings_files=off --write_settings_files=off trimble -c trimble
quartus_map --read_settings_files=on --write_settings_files=off trimble -c trimble
quartus_cdb --read_settings_files=off --write_settings_files=off trimble -c trimble --merge=on
quartus_fit --read_settings_files=off --write_settings_files=off trimble -c trimble
quartus_asm --read_settings_files=off --write_settings_files=off trimble -c trimble
quartus_sta trimble -c trimble
quartus_eda --read_settings_files=off --write_settings_files=off trimble -c trimble
quartus_map --read_settings_files=on --write_settings_files=off trimble -c trimble
quartus_cdb --read_settings_files=off --write_settings_files=off trimble -c trimble --merge=on
quartus_fit --read_settings_files=off --write_settings_files=off trimble -c trimble
quartus_asm --read_settings_files=off --write_settings_files=off trimble -c trimble
quartus_sta trimble -c trimble
quartus_eda --read_settings_files=off --write_settings_files=off trimble -c trimble
quartus_map --read_settings_files=on --write_settings_files=off trimble -c trimble
quartus_cdb --read_settings_files=off --write_settings_files=off trimble -c trimble --merge=on
quartus_fit --read_settings_files=off --write_settings_files=off trimble -c trimble
quartus_asm --read_settings_files=off --write_settings_files=off trimble -c trimble
quartus_sta trimble -c trimble
quartus_eda --read_settings_files=off --write_settings_files=off trimble -c trimble
quartus_map --read_settings_files=on --write_settings_files=off trimble -c trimble
quartus_cdb --read_settings_files=off --write_settings_files=off trimble -c trimble --merge=on
quartus_fit --read_settings_files=off --write_settings_files=off trimble -c trimble
quartus_asm --read_settings_files=off --write_settings_files=off trimble -c trimble
quartus_sta trimble -c trimble
quartus_eda --read_settings_files=off --write_settings_files=off trimble -c trimble
quartus_map --read_settings_files=on --write_settings_files=off trimble -c trimble
quartus_cdb --read_settings_files=off --write_settings_files=off trimble -c trimble --merge=on
quartus_fit --read_settings_files=off --write_settings_files=off trimble -c trimble
quartus_asm --read_settings_files=off --write_settings_files=off trimble -c trimble
quartus_sta trimble -c trimble
quartus_eda --read_settings_files=off --write_settings_files=off trimble -c trimble
quartus_map --read_settings_files=on --write_settings_files=off trimble -c trimble
quartus_cdb --read_settings_files=off --write_settings_files=off trimble -c trimble --merge=on
quartus_fit --read_settings_files=off --write_settings_files=off trimble -c trimble
quartus_asm --read_settings_files=off --write_settings_files=off trimble -c trimble
quartus_sta trimble -c trimble
quartus_eda --read_settings_files=off --write_settings_files=off trimble -c trimble
quartus_map --read_settings_files=on --write_settings_files=off trimble -c trimble
quartus_cdb --read_settings_files=off --write_settings_files=off trimble -c trimble --merge=on
quartus_fit --read_settings_files=off --write_settings_files=off trimble -c trimble
quartus_asm --read_settings_files=off --write_settings_files=off trimble -c trimble
quartus_sta trimble -c trimble
quartus_eda --read_settings_files=off --write_settings_files=off trimble -c trimble
quartus_map --read_settings_files=on --write_settings_files=off trimble -c trimble
quartus_cdb --read_settings_files=off --write_settings_files=off trimble -c trimble --merge=on
quartus_fit --read_settings_files=off --write_settings_files=off trimble -c trimble
quartus_asm --read_settings_files=off --write_settings_files=off trimble -c trimble
quartus_sta trimble -c trimble
quartus_eda --read_settings_files=off --write_settings_files=off trimble -c trimble
quartus_map --read_settings_files=on --write_settings_files=off trimble -c trimble
quartus_cdb --read_settings_files=off --write_settings_files=off trimble -c trimble --merge=on
quartus_fit --read_settings_files=off --write_settings_files=off trimble -c trimble
quartus_asm --read_settings_files=off --write_settings_files=off trimble -c trimble
quartus_sta trimble -c trimble
quartus_eda --read_settings_files=off --write_settings_files=off trimble -c trimble
quartus_map --read_settings_files=on --write_settings_files=off trimble -c trimble
quartus_map --read_settings_files=on --write_settings_files=off trimble -c trimble
quartus_cdb --read_settings_files=off --write_settings_files=off trimble -c trimble --merge=on
quartus_fit --read_settings_files=off --write_settings_files=off trimble -c trimble
quartus_asm --read_settings_files=off --write_settings_files=off trimble -c trimble
quartus_sta trimble -c trimble
quartus_eda --read_settings_files=off --write_settings_files=off trimble -c trimble
quartus_map --read_settings_files=on --write_settings_files=off trimble -c trimble
quartus_cdb --read_settings_files=off --write_settings_files=off trimble -c trimble --merge=on
quartus_fit --read_settings_files=off --write_settings_files=off trimble -c trimble
quartus_asm --read_settings_files=off --write_settings_files=off trimble -c trimble
quartus_sta trimble -c trimble
quartus_eda --read_settings_files=off --write_settings_files=off trimble -c trimble
quartus_map --read_settings_files=on --write_settings_files=off trimble -c trimble
quartus_cdb --read_settings_files=off --write_settings_files=off trimble -c trimble --merge=on
quartus_fit --read_settings_files=off --write_settings_files=off trimble -c trimble
quartus_asm --read_settings_files=off --write_settings_files=off trimble -c trimble
quartus_sta trimble -c trimble
quartus_eda --read_settings_files=off --write_settings_files=off trimble -c trimble
quartus_map --read_settings_files=on --write_settings_files=off trimble -c trimble
quartus_map --read_settings_files=on --write_settings_files=off trimble -c trimble
quartus_cdb --read_settings_files=off --write_settings_files=off trimble -c trimble --merge=on
quartus_fit --read_settings_files=off --write_settings_files=off trimble -c trimble
quartus_asm --read_settings_files=off --write_settings_files=off trimble -c trimble
quartus_sta trimble -c trimble
quartus_eda --read_settings_files=off --write_settings_files=off trimble -c trimble
quartus_map --read_settings_files=on --write_settings_files=off trimble -c trimble
quartus_cdb --read_settings_files=off --write_settings_files=off trimble -c trimble --merge=on
quartus_fit --read_settings_files=off --write_settings_files=off trimble -c trimble
quartus_fit --read_settings_files=on --write_settings_files=off trimble -c trimble
quartus_map --read_settings_files=on --write_settings_files=off trimble -c trimble
quartus_cdb --read_settings_files=off --write_settings_files=off trimble -c trimble --merge=on
quartus_fit --read_settings_files=off --write_settings_files=off trimble -c trimble
quartus_map --read_settings_files=on --write_settings_files=off trimble -c trimble
quartus_map --read_settings_files=on --write_settings_files=off trimble -c trimble
quartus_cdb --read_settings_files=off --write_settings_files=off trimble -c trimble --merge=on
quartus_fit --read_settings_files=off --write_settings_files=off trimble -c trimble
quartus_asm --read_settings_files=off --write_settings_files=off trimble -c trimble
quartus_sta trimble -c trimble
quartus_eda --read_settings_files=off --write_settings_files=off trimble -c trimble
quartus_map --read_settings_files=on --write_settings_files=off trimble -c trimble
quartus_cdb --read_settings_files=off --write_settings_files=off trimble -c trimble --merge=on
quartus_fit --read_settings_files=off --write_settings_files=off trimble -c trimble
quartus_asm --read_settings_files=off --write_settings_files=off trimble -c trimble
quartus_sta trimble -c trimble
quartus_eda --read_settings_files=off --write_settings_files=off trimble -c trimble
quartus_map --read_settings_files=on --write_settings_files=off trimble -c trimble
quartus_map --read_settings_files=on --write_settings_files=off trimble -c trimble
quartus_cdb --read_settings_files=off --write_settings_files=off trimble -c trimble --merge=on
quartus_fit --read_settings_files=off --write_settings_files=off trimble -c trimble
quartus_asm --read_settings_files=off --write_settings_files=off trimble -c trimble
quartus_sta trimble -c trimble
quartus_eda --read_settings_files=off --write_settings_files=off trimble -c trimble
quartus_map --read_settings_files=on --write_settings_files=off trimble -c trimble
quartus_cdb --read_settings_files=off --write_settings_files=off trimble -c trimble --merge=on
quartus_fit --read_settings_files=off --write_settings_files=off trimble -c trimble
quartus_map --read_settings_files=on --write_settings_files=off trimble -c trimble
quartus_cdb --read_settings_files=off --write_settings_files=off trimble -c trimble --merge=on
quartus_fit --read_settings_files=off --write_settings_files=off trimble -c trimble
quartus_map --read_settings_files=on --write_settings_files=off trimble -c trimble
quartus_cdb --read_settings_files=off --write_settings_files=off trimble -c trimble --merge=on
quartus_fit --read_settings_files=off --write_settings_files=off trimble -c trimble
quartus_asm --read_settings_files=off --write_settings_files=off trimble -c trimble
quartus_sta trimble -c trimble
quartus_eda --read_settings_files=off --write_settings_files=off trimble -c trimble
quartus_map --read_settings_files=on --write_settings_files=off trimble -c trimble
quartus_cdb --read_settings_files=off --write_settings_files=off trimble -c trimble --merge=on
quartus_fit --read_settings_files=off --write_settings_files=off trimble -c trimble
quartus_asm --read_settings_files=off --write_settings_files=off trimble -c trimble
quartus_sta trimble -c trimble
quartus_eda --read_settings_files=off --write_settings_files=off trimble -c trimble
quartus_map --read_settings_files=on --write_settings_files=off trimble -c trimble
quartus_cdb --read_settings_files=off --write_settings_files=off trimble -c trimble --merge=on
quartus_fit --read_settings_files=off --write_settings_files=off trimble -c trimble
quartus_asm --read_settings_files=off --write_settings_files=off trimble -c trimble
quartus_sta trimble -c trimble
quartus_eda --read_settings_files=off --write_settings_files=off trimble -c trimble
quartus_map --read_settings_files=on --write_settings_files=off trimble -c trimble
quartus_map --read_settings_files=on --write_settings_files=off trimble -c trimble
quartus_map --read_settings_files=on --write_settings_files=off trimble -c trimble
quartus_map --read_settings_files=on --write_settings_files=off trimble -c trimble
quartus_cdb --read_settings_files=off --write_settings_files=off trimble -c trimble --merge=on
quartus_fit --read_settings_files=off --write_settings_files=off trimble -c trimble
quartus_asm --read_settings_files=off --write_settings_files=off trimble -c trimble
quartus_sta trimble -c trimble
quartus_eda --read_settings_files=off --write_settings_files=off trimble -c trimble
quartus_map --read_settings_files=on --write_settings_files=off trimble -c trimble
quartus_map --read_settings_files=on --write_settings_files=off trimble -c trimble
quartus_map --read_settings_files=on --write_settings_files=off trimble -c trimble
quartus_map --read_settings_files=on --write_settings_files=off trimble -c trimble
quartus_map --read_settings_files=on --write_settings_files=off trimble -c trimble
quartus_cdb --read_settings_files=off --write_settings_files=off trimble -c trimble --merge=on
quartus_fit --read_settings_files=off --write_settings_files=off trimble -c trimble
quartus_asm --read_settings_files=off --write_settings_files=off trimble -c trimble
quartus_sta trimble -c trimble
quartus_eda --read_settings_files=off --write_settings_files=off trimble -c trimble
quartus_map --read_settings_files=on --write_settings_files=off trimble -c trimble
quartus_cdb --read_settings_files=off --write_settings_files=off trimble -c trimble --merge=on
quartus_fit --read_settings_files=off --write_settings_files=off trimble -c trimble
quartus_asm --read_settings_files=off --write_settings_files=off trimble -c trimble
quartus_sta trimble -c trimble
quartus_eda --read_settings_files=off --write_settings_files=off trimble -c trimble



